"Province","City","CityCode","Confirmed","Deaths","Recovered","Active","LastUpdate","Restriction_C1","Restriction_C2","Restriction_C3","Restriction_C4","Restriction_C5","Restriction_C6","Restriction_C7","Restriction_C8","Restriction_E1","Restriction_E2","Restriction_E3","Restriction_E4","Restriction_H1","Restriction_H2","Restriction_H3","Restriction_H4","Restriction_H5","Restriction_M1","population"
"","","",0,0,0,0,"2020-01-22T00:00:00.000Z","0","0","0","0","0","0","0","0","0","0","0","0","0","1","2","0","0",,5426252
"","","",0,0,0,0,"2020-01-23T00:00:00.000Z","0","0","0","0","0","0","0","0","0","0","0","0","0","1","2","0","0",,5426252
"","","",0,0,0,0,"2020-01-24T00:00:00.000Z","0","0","0","0","0","0","0","0","0","0","0","0","0","1","2","0","0",,5426252
"","","",0,0,0,0,"2020-01-25T00:00:00.000Z","0","0","0","0","0","0","0","0","0","0","0","0","0","1","2","0","0",,5426252
"","","",0,0,0,0,"2020-01-26T00:00:00.000Z","0","0","0","0","0","0","0","0","0","0","0","0","0","1","2","0","0",,5426252
"","","",0,0,0,0,"2020-01-27T00:00:00.000Z","0","0","0","0","0","0","0","0","0","0","0","0","1","1","2","0","0",,5426252
"","","",0,0,0,0,"2020-01-28T00:00:00.000Z","0","0","0","0","0","0","0","0","0","0","0","0","1","1","2","0","0",,5426252
"","","",0,0,0,0,"2020-01-29T00:00:00.000Z","0","0","0","0","0","0","0","0","0","0","0","0","1","1","2","0","0",,5426252
"","","",0,0,0,0,"2020-01-30T00:00:00.000Z","0","0","0","0","0","0","0","0","0","0","0","0","1","1","2","0","0",,5426252
"","","",0,0,0,0,"2020-01-31T00:00:00.000Z","0","0","0","0","0","0","0","0","0","0","0","0","1","1","2","0","0",,5426252
"","","",0,0,0,0,"2020-02-01T00:00:00.000Z","0","0","0","0","0","0","0","0","0","0","0","0","1","1","2","0","0",,5426252
"","","",0,0,0,0,"2020-02-02T00:00:00.000Z","0","0","0","0","0","0","0","0","0","0","0","0","1","1","2","0","0",,5426252
"","","",0,0,0,0,"2020-02-03T00:00:00.000Z","0","0","0","0","0","0","0","0","0","0","0","0","1","1","2","0","0",,5426252
"","","",0,0,0,0,"2020-02-04T00:00:00.000Z","0","0","0","0","0","0","0","0","0","0","0","0","1","1","2","0","0",,5426252
"","","",0,0,0,0,"2020-02-05T00:00:00.000Z","0","0","0","0","0","0","0","0","0","0","0","0","1","1","2","0","0",,5426252
"","","",0,0,0,0,"2020-02-06T00:00:00.000Z","0","0","0","0","0","0","0","0","0","0","0","0","1","1","2","0","0",,5426252
"","","",0,0,0,0,"2020-02-07T00:00:00.000Z","0","0","0","0","0","0","0","0","0","0","0","null","1","1","2","0","0",,5426252
"","","",0,0,0,0,"2020-02-08T00:00:00.000Z","0","0","0","0","0","0","0","0","0","0","0","null","1","1","2","0","0",,5426252
"","","",0,0,0,0,"2020-02-09T00:00:00.000Z","0","0","0","0","0","0","0","0","0","0","0","0","1","1","2","0","0",,5426252
"","","",0,0,0,0,"2020-02-10T00:00:00.000Z","0","0","0","0","0","0","0","0","0","0","0","0","1","1","2","0","0",,5426252
"","","",0,0,0,0,"2020-02-11T00:00:00.000Z","0","0","0","0","0","0","0","0","0","0","0","0","1","1","2","0","0",,5426252
"","","",0,0,0,0,"2020-02-12T00:00:00.000Z","0","0","0","0","0","0","0","0","0","0","0","0","1","1","2","0","0",,5426252
"","","",0,0,0,0,"2020-02-13T00:00:00.000Z","0","0","0","0","0","0","0","0","0","0","0","0","1","1","2","0","0",,5426252
"","","",0,0,0,0,"2020-02-14T00:00:00.000Z","0","0","0","0","0","0","0","0","0","0","0","0","1","1","2","0","0",,5426252
"","","",0,0,0,0,"2020-02-15T00:00:00.000Z","0","0","0","0","0","0","0","0","0","0","0","0","1","1","2","0","0",,5426252
"","","",0,0,0,0,"2020-02-16T00:00:00.000Z","0","0","0","0","0","0","0","0","0","0","0","0","1","1","2","0","0",,5426252
"","","",0,0,0,0,"2020-02-17T00:00:00.000Z","0","0","0","0","0","0","0","0","0","0","0","0","1","1","2","0","0",,5426252
"","","",0,0,0,0,"2020-02-18T00:00:00.000Z","0","0","0","0","0","0","0","0","0","0","0","0","1","1","2","0","0",,5426252
"","","",0,0,0,0,"2020-02-19T00:00:00.000Z","0","0","0","0","0","0","0","0","0","0","0","0","1","1","2","0","0",,5426252
"","","",0,0,0,0,"2020-02-20T00:00:00.000Z","0","0","0","0","0","0","0","0","0","0","0","0","1","1","2","0","0",,5426252
"","","",0,0,0,0,"2020-02-21T00:00:00.000Z","0","0","0","0","0","0","0","0","0","0","0","0","1","1","2","0","0",,5426252
"","","",0,0,0,0,"2020-02-22T00:00:00.000Z","0","0","0","0","0","0","0","0","0","0","0","0","1","1","2","0","0",,5426252
"","","",0,0,0,0,"2020-02-23T00:00:00.000Z","0","0","0","0","0","0","0","0","0","0","0","0","1","1","2","0","0",,5426252
"","","",0,0,0,0,"2020-02-24T00:00:00.000Z","0","0","0","0","0","0","0","0","0","0","0","0","1","1","2","0","0",,5426252
"","","",0,0,0,0,"2020-02-25T00:00:00.000Z","0","0","0","0","0","0","0","0","0","0","0","0","1","1","2","0","0",,5426252
"","","",0,0,0,0,"2020-02-26T00:00:00.000Z","0","0","0","0","0","0","0","0","0","0","0","0","1","1","2","0","0",,5426252
"","","",0,0,0,0,"2020-02-27T00:00:00.000Z","0","0","0","0","0","0","0","0","0","0","0","0","1","1","2","0","0",,5426252
"","","",0,0,0,0,"2020-02-28T00:00:00.000Z","0","0","0","0","0","0","0","0","0","0","0","0","1","1","2","0","0",,5426252
"","","",0,0,0,0,"2020-02-29T00:00:00.000Z","0","0","0","0","0","0","0","0","0","0","0","0","1","1","2","0","0",,5426252
"","","",0,0,0,0,"2020-03-01T00:00:00.000Z","0","0","0","0","0","0","0","0","0","0","0","0","1","1","2","0","0",,5426252
"","","",0,0,0,0,"2020-03-02T00:00:00.000Z","0","0","0","0","0","0","0","0","0","0","0","0","1","1","2","0","0",,5426252
"","","",0,0,0,0,"2020-03-03T00:00:00.000Z","0","0","0","0","0","0","0","0","0","0","0","0","1","1","2","0","0",,5426252
"","","",0,0,0,0,"2020-03-04T00:00:00.000Z","0","0","0","0","0","0","0","0","0","0","0","0","2","1","2","0","0",,5426252
"","","",0,0,0,0,"2020-03-05T00:00:00.000Z","0","0","0","0","0","0","0","0","0","0","0","0","2","1","2","0","0",,5426252
"","","",1,0,0,1,"2020-03-06T00:00:00.000Z","0","0","1","0","0","0","0","0","0","0","0","0","2","1","2","0","0",,5426252
"","","",1,0,0,1,"2020-03-07T00:00:00.000Z","0","0","1","0","0","0","0","0","0","0","0","0","2","1","2","0","0",,5426252
"","","",3,0,0,3,"2020-03-08T00:00:00.000Z","0","0","1","0","0","0","0","0","0","0","0","0","2","1","2","0","0",,5426252
"","","",3,0,0,3,"2020-03-09T00:00:00.000Z","0","0","1","0","0","0","0","2","0","0","0","0","2","1","2","0","0",,5426252
"","","",7,0,0,7,"2020-03-10T00:00:00.000Z","2","0","2","0","0","0","0","2","0","0","0","0","2","1","2","0","0",,5426252
"","","",10,0,0,10,"2020-03-11T00:00:00.000Z","2","0","2","0","0","0","0","2","0","0","0","0","2","1","2","0","0",,5426252
"","","",16,0,0,16,"2020-03-12T00:00:00.000Z","2","0","2","3","0","1","0","2","0","0","0","0","2","1","2","0","0",,5426252
"","","",32,0,0,32,"2020-03-13T00:00:00.000Z","2","2","2","3","0","1","0","4","0","0","0","0","2","1","2","0","0",,5426252
"","","",44,0,0,44,"2020-03-14T00:00:00.000Z","2","2","2","3","1","1","0","4","0","0","0","0","2","1","2","0","0",,5426252
"","","",54,0,0,54,"2020-03-15T00:00:00.000Z","2","2","2","3","1","1","0","4","0","0","0","0","2","1","2","0","0",,5426252
"","","",63,0,0,63,"2020-03-16T00:00:00.000Z","3","2","2","3","1","1","1","4","0","0","0","0","2","1","2","0","0",,5426252
"","","",72,0,0,72,"2020-03-17T00:00:00.000Z","3","2","2","3","1","1","1","4","0","0","0","0","2","1","2","0","0",,5426252
"","","",105,1,0,104,"2020-03-18T00:00:00.000Z","3","2","2","3","1","1","1","4","0","2","0","0","2","1","2","0","0",,5426252
"","","",123,1,0,122,"2020-03-19T00:00:00.000Z","3","2","2","3","1","1","1","4","0","2","0","0","2","1","2","0","0",,5426252
"","","",137,1,0,136,"2020-03-20T00:00:00.000Z","3","2","2","3","1","1","1","4","0","2","0","0","2","1","2","0","0",,5426252
"","","",178,1,0,177,"2020-03-21T00:00:00.000Z","3","2","2","3","1","1","1","4","0","2","0","0","2","1","2","0","0",,5426252
"","","",185,0,7,178,"2020-03-22T00:00:00.000Z","3","2","2","3","1","1","1","4","0","2","0","0","2","1","2","0","0",,5426252
"","","",186,0,7,179,"2020-03-23T00:00:00.000Z","3","2","2","3","1","1","1","4","0","2","0","0","2","1","2","0","0",,5426252
"","","",204,0,7,197,"2020-03-24T00:00:00.000Z","3","2","2","3","1","1","1","4","0","2","0","0","2","1","2","0","0",,5426252
"","","",216,0,7,209,"2020-03-25T00:00:00.000Z","3","2","2","3","1","1","1","4","0","2","0","0","2","1","2","0","0",,5426252
"","","",226,0,2,224,"2020-03-26T00:00:00.000Z","3","2","2","3","1","1","1","4","0","2","0","0","2","1","2","0","0",,5426252
"","","",269,0,2,267,"2020-03-27T00:00:00.000Z","3","2","2","3","1","1","1","4","0","2","0","0","2","1","2","0","0",,5426252
"","","",292,0,2,290,"2020-03-28T00:00:00.000Z","3","2","2","3","1","1","1","4","0","2","0","0","2","1","2","0","0",,5426252
"","","",314,0,2,312,"2020-03-29T00:00:00.000Z","3","2","2","3","1","1","1","4","2","2","2,222,800,000","0","2","1","2","0","0",,5426252
"","","",336,0,7,329,"2020-03-30T00:00:00.000Z","3","2","2","3","1","1","1","4","2","2","0","0","2","1","2","0","0",,5426252
"","","",363,0,3,360,"2020-03-31T00:00:00.000Z","3","2","2","3","1","1","1","4","2","2","0","0","2","1","2","0","0",,5426252
"","","",400,1,3,396,"2020-04-01T00:00:00.000Z","3","2","2","3","1","1","1","4","2","2","0","0","2","1","2","0","0",,5426252
"","","",426,1,5,420,"2020-04-02T00:00:00.000Z","3","2","2","3","1","1","1","4","2","2","0","0","2","1","2","0","0",,5426252
"","","",450,1,10,439,"2020-04-03T00:00:00.000Z","3","2","2","3","1","1","1","4","2","2","0","0","2","1","2","0","0",,5426252
"","","",471,1,10,460,"2020-04-04T00:00:00.000Z","3","2","2","3","1","1","1","4","2","2","0","0","2","1","2","0","0",,5426252
"","","",485,1,10,474,"2020-04-05T00:00:00.000Z","3","2","2","3","1","1","1","4","2","2","0","0","2","1","2","0","0",,5426252
"","","",534,2,8,524,"2020-04-06T00:00:00.000Z","3","2","2","3","1","1","1","4","2","2","0","0","2","1","2","0","0",,5426252
"","","",581,2,13,566,"2020-04-07T00:00:00.000Z","3","2","2","3","1","1","1","4","2","2","0","0","2","1","2","0","0",,5426252
"","","",682,2,16,664,"2020-04-08T00:00:00.000Z","3","2","2","4","1","2","2","4","2","2","0","0","2","1","2","0","0",,5426252
"","","",701,2,23,676,"2020-04-09T00:00:00.000Z","3","2","2","4","1","2","2","4","2","2","0","0","2","1","2","61,647,909","0",,5426252
"","","",715,2,23,690,"2020-04-10T00:00:00.000Z","3","2","2","4","1","2","2","4","2","2","0","0","2","1","2","0","0",,5426252
"","","",728,2,23,703,"2020-04-11T00:00:00.000Z","3","2","2","4","1","2","2","4","2","2","0","0","2","1","2","0","0",,5426252
"","","",742,2,23,717,"2020-04-12T00:00:00.000Z","3","2","2","4","1","2","2","4","2","2","0","0","2","1","2","0","0",,5426252
"","","",769,2,107,660,"2020-04-13T00:00:00.000Z","3","2","2","4","1","2","2","4","2","2","0","0","2","1","2","0","0",,5426252
"","","",835,2,113,720,"2020-04-14T00:00:00.000Z","3","2","2","3","1","1","1","4","2","2","0","0","2","1","2","0","0",,5426252
"","","",863,6,151,706,"2020-04-15T00:00:00.000Z","3","2","2","3","1","1","1","4","2","2","0","0","2","1","2","0","0",,5426252
"","","",977,8,167,802,"2020-04-16T00:00:00.000Z","3","2","2","3","1","1","1","4","2","2","0","0","2","1","2","0","0",,5426252
"","","",1049,9,175,865,"2020-04-17T00:00:00.000Z","3","2","2","3","1","1","1","4","2","2","0","0","2","1","2","0","0",,5426252
"","","",1089,11,213,865,"2020-04-18T00:00:00.000Z","3","2","2","3","1","1","1","4","2","2","0","0","2","1","2","0","0",,5426252
"","","",1161,12,229,920,"2020-04-19T00:00:00.000Z","3","2","2","3","1","1","1","4","2","2","0","0","2","1","2","0","0",,5426252
"","","",1173,13,251,909,"2020-04-20T00:00:00.000Z","3","2","2","3","1","1","1","4","2","2","0","0","2","1","2","0","0",,5426252
"","","",1199,14,258,927,"2020-04-21T00:00:00.000Z","3","2","2","3","1","1","1","4","2","2","0","0","2","1","2","0","0","null",5426252
"","","",1244,14,284,946,"2020-04-22T00:00:00.000Z","3","2","2","3","1","1","1","4","2","2","0","0","2","1","2","0","0",,5426252
"","","",1325,15,288,1022,"2020-04-23T00:00:00.000Z","3","2","2","3","1","1","1","4","2","2","0","0","2","1","2","0","0",,5426252
"","","",1360,17,355,988,"2020-04-24T00:00:00.000Z","3","2","2","3","1","1","1","4","2","2","0","0","2","1","2","0","0",,5426252
"","","",1373,17,386,970,"2020-04-25T00:00:00.000Z","3","2","2","3","1","1","1","4","2","2","0","0","2","1","2","0","0",,5426252
"","","",1379,18,394,967,"2020-04-26T00:00:00.000Z","3","2","2","3","1","1","1","4","2","2","0","0","2","1","2","0","0",,5426252
"","","",1381,18,403,960,"2020-04-27T00:00:00.000Z","3","2","2","3","1","1","1","4","2","2","0","0","2","1","2","0","0",,5426252
"","","",1384,20,423,941,"2020-04-28T00:00:00.000Z","3","2","2","3","1","1","1","4","2","2","0","0","2","1","2","0","0",,5426252
"","","",1391,22,484,885,"2020-04-29T00:00:00.000Z","3","2","2","3","1","1","1","4","2","2","0","0","2","1","2","0","0",,5426252
"","","",1396,23,524,849,"2020-04-30T00:00:00.000Z","3","2","2","3","1","1","1","4","2","2","0","0","2","1","2","0","0",,5426252
"","","",1403,23,558,822,"2020-05-01T00:00:00.000Z","3","2","2","3","1","1","1","4","2","2","0","0","2","1","2","0","0",,5426252
"","","",1407,24,608,775,"2020-05-02T00:00:00.000Z","3","2","2","3","1","1","1","4","2","2","0","0","2","1","2","0","0",,5426252
"","","",1408,24,619,765,"2020-05-03T00:00:00.000Z","3","2","2","3","1","1","1","4","2","2","0","0","2","1","2","0","0",,5426252
"","","",1413,25,643,745,"2020-05-04T00:00:00.000Z","3","2","2","3","1","1","1","4","2","2","0","0","2","1","2","0","0",,5426252
"","","",1421,25,741,655,"2020-05-05T00:00:00.000Z","3","2","2","3","1","1","1","4","2","2","0","0","2","1","2","0","0",,5426252
"","","",1429,25,762,642,"2020-05-06T00:00:00.000Z","3","2","2","3","1","1","1","4","2","2","0","0","2","1","2","0","0",,5426252
"","","",1445,26,806,613,"2020-05-07T00:00:00.000Z","3","2","2","3","1","1","1","4","2","2","0","0","2","1","2","0","0",,5426252
"","","",1455,26,905,524,"2020-05-08T00:00:00.000Z","3","2","2","3","1","1","1","4","2","2","0","0","2","1","2","0","0",,5426252
"","","",1455,26,919,510,"2020-05-09T00:00:00.000Z","3","2","2","3","1","1","1","4","2","2","0","0","2","1","2","0","0",,5426252
"","","",1457,26,941,490,"2020-05-10T00:00:00.000Z","3","2","2","3","1","1","1","4","2","2","0","0","2","1","2","0","0",,5426252
"","","",1457,26,959,472,"2020-05-11T00:00:00.000Z","3","2","2","3","1","1","1","4","2","2","0","0","2","1","2","0","0",,5426252
"","","",1465,27,983,455,"2020-05-12T00:00:00.000Z","3","2","2","3","1","1","1","4","2","2","0","0","2","1","2","0","0",,5426252
"","","",1469,27,1060,382,"2020-05-13T00:00:00.000Z","3","2","2","3","1","1","1","4","2","2","0","0","2","1","2","0","0",,5426252
"","","",1477,27,1112,338,"2020-05-14T00:00:00.000Z","3","2","2","3","1","1","1","4","2","2","0","0","2","1","2","0","0",,5426252
"","","",1480,27,1131,322,"2020-05-15T00:00:00.000Z","3","2","2","3","1","1","1","4","2","2","0","0","2","1","2","0","0",,5426252
"","","",1493,28,1151,314,"2020-05-16T00:00:00.000Z","3","2","2","3","1","1","1","4","2","2","0","0","2","1","2","0","0",,5426252
"","","",1494,28,1163,303,"2020-05-17T00:00:00.000Z","3","2","2","3","1","1","1","4","2","2","0","0","2","1","2","0","0",,5426252
"","","",1495,28,1185,282,"2020-05-18T00:00:00.000Z","3","2","2","3","1","1","1","4","2","2","0","0","2","1","2","0","0",,5426252
"","","",1495,28,1192,275,"2020-05-19T00:00:00.000Z","3","2","2","3","1","1","1","4","2","2","0","0","2","1","2","0","0",,5426252
"","","",1496,28,1231,237,"2020-05-20T00:00:00.000Z","3","2","2","3","1","1","1","4","2","2","0","0","2","1","2","0","0",,5426252
"","","",1502,28,1245,229,"2020-05-21T00:00:00.000Z","3","2","2","3","1","1","1","4","2","2","0","0","2","1","2","0","0",,5426252
"","","",1503,28,1256,219,"2020-05-22T00:00:00.000Z","3","2","2","3","1","1","1","4","2","2","0","0","2","1","2","0","0",,5426252
"","","",1504,28,1280,196,"2020-05-23T00:00:00.000Z","3","2","2","3","1","1","1","4","2","2","0","0","2","1","2","0","0",,5426252
"","","",1509,28,1301,180,"2020-05-24T00:00:00.000Z","3","2","2","3","1","1","1","4","2","2","0","0","2","1","2","0","0",,5426252
"","","",1511,28,1307,176,"2020-05-25T00:00:00.000Z","3","2","2","3","1","1","1","4","2","2","0","0","2","1","2","0","0",,5426252
"","","",1513,28,1322,163,"2020-05-26T00:00:00.000Z","3","2","2","3","1","1","1","4","2","2","0","0","2","1","2","0","0",,5426252
"","","",1515,28,1327,160,"2020-05-27T00:00:00.000Z","3","2","2","3","1","1","1","4","2","2","0","0","2","1","2","0","0",,5426252
"","","",1520,28,1332,160,"2020-05-28T00:00:00.000Z","3","2","2","3","1","1","1","4","2","2","0","0","2","1","2","0","0",,5426252
"","","",1520,28,1338,154,"2020-05-29T00:00:00.000Z","3","2","2","3","1","1","1","4","2","2","0","0","2","1","2","0","0",,5426252
"","","",1521,28,1356,137,"2020-05-30T00:00:00.000Z","3","2","2","3","1","1","1","4","2","2","0","0","2","1","2","0","0",,5426252
"","","",1521,28,1366,127,"2020-05-31T00:00:00.000Z","3","2","2","3","1","1","1","4","2","2","0","0","2","1","2","0","0",,5426252
"","","",1522,28,1368,126,"2020-06-01T00:00:00.000Z","2","2","2","3","1","1","1","4","2","2","0","0","2","1","2","0","0",,5426252
"","","",1522,28,1372,122,"2020-06-02T00:00:00.000Z","2","2","2","3","1","1","1","4","2","2","0","0","2","1","2","0","0",,5426252
"","","",1525,28,1375,122,"2020-06-03T00:00:00.000Z","2","0","0","3","1","1","1","4","2","2","0","0","2","1","2","0","0","null",5426252
"","","",1526,28,1376,122,"2020-06-04T00:00:00.000Z","2","0","0","3","1","1","1","4","2","2","0","0","2","1","2","0","0",,5426252
"","","",1526,28,1379,119,"2020-06-05T00:00:00.000Z","2","0","0","3","1","1","1","3","2","2","0","0","2","1","2","0","0",,5426252
"","","",1528,28,1379,121,"2020-06-06T00:00:00.000Z","2","0","0","3","1","1","1","3","2","2","0","0","2","1","2","0","0",,5426252
"","","",1528,28,1389,111,"2020-06-07T00:00:00.000Z","2","0","0","3","1","1","1","3","2","2","0","0","2","1","2","0","0",,5426252
"","","",1530,28,1396,106,"2020-06-08T00:00:00.000Z","2","0","0","3","1","1","1","3","2","2","0","0","2","1","2","0","0",,5426252
"","","",1531,28,1402,101,"2020-06-09T00:00:00.000Z","2","0","0","3","1","1","1","3","2","2","0","0","2","1","2","0","0",,5426252
"","","",1533,28,1404,101,"2020-06-10T00:00:00.000Z","2","0","0","2","1","1","1","3","2","2","0","0","2","1","2","0","0",,5426252
"","","",1541,28,1409,104,"2020-06-11T00:00:00.000Z","2","0","0","2","1","1","1","3","2","2","0","0","2","1","2","0","0",,5426252
"","","",1542,28,1409,105,"2020-06-12T00:00:00.000Z","2","0","0","2","1","1","1","3","2","2","0","0","2","1","2","0","0",,5426252
"","","",1545,28,1410,107,"2020-06-13T00:00:00.000Z","2","0","0","2","1","1","1","3","2","2","0","0","2","1","2","0","0",,5426252
"","","",1548,28,1410,110,"2020-06-14T00:00:00.000Z","2","0","0","2","1","0","1","3","2","2","0","0","2","1","2","0","0",,5426252
"","","",1552,28,1410,114,"2020-06-15T00:00:00.000Z","2","0","0","2","1","0","1","3","2","2","0","0","2","1","2","0","0",,5426252
"","","",1552,28,1426,98,"2020-06-16T00:00:00.000Z","2","0","0","2","1","0","1","3","2","2","0","0","2","1","2","0","0",,5426252
"","","",1561,28,1437,96,"2020-06-17T00:00:00.000Z","2","0","0","2","1","0","1","3","2","2","0","0","2","1","2","0","0",,5426252
"","","",1562,28,1443,91,"2020-06-18T00:00:00.000Z","2","0","0","2","1","0","1","3","2","2","0","0","2","1","2","0","0",,5426252
"","","",1576,28,1447,101,"2020-06-19T00:00:00.000Z","2","0","0","2","1","0","1","3","2","2","0","0","2","1","2","0","0",,5426252
"","","",1586,28,1447,111,"2020-06-20T00:00:00.000Z","2","0","0","2","1","0","1","2","2","2","0","0","2","1","2","0","0","null",5426252
"","","",1587,28,1447,112,"2020-06-21T00:00:00.000Z","2","0","0","2","1","0","1","2","2","2","0","0","2","1","2","0","0","null",5426252
"","","",1588,28,1447,113,"2020-06-22T00:00:00.000Z","2","0","0","2","1","0","1","2","2","2","0","0","2","1","2","0","0","null",5426252
"","","",1589,28,1448,113,"2020-06-23T00:00:00.000Z","2","0","0","2","1","0","1","2","2","2","0","0","2","1","2","0","0","null",5426252
"","","",1607,28,1448,131,"2020-06-24T00:00:00.000Z","2","0","0","2","1","0","1","2","2","2","0","0","2","1","2","0","0","null",5426252
"","","",1630,28,1452,150,"2020-06-25T00:00:00.000Z","2","0","0","2","1","0","1","2","2","2","0","0","2","1","2","0","0","null",5426252
"","","",1643,28,1455,160,"2020-06-26T00:00:00.000Z","2","0","0","2","1","0","1","2","2","2","0","0","2","1","2","0","0","null",5426252
"","","",1657,28,1455,174,"2020-06-27T00:00:00.000Z","2","0","0","2","1","0","1","2","2","2","0","0","2","1","2","0","0","null",5426252
"","","",1664,28,1461,175,"2020-06-28T00:00:00.000Z","2","0","0","2","1","0","1","2","2","2","0","0","2","1","2","0","0","null",5426252
"","","",1665,28,1464,173,"2020-06-29T00:00:00.000Z","2","0","0","2","1","0","1","2","2","2","0","0","2","1","2","0","0","null",5426252
"","","",1667,28,1464,175,"2020-06-30T00:00:00.000Z","2","0","0","2","1","0","1","2","2","2","0","0","2","1","2","0","0",,5426252
"","","",1687,28,1466,193,"2020-07-01T00:00:00.000Z","2","0","0","2","1","0","1","2","2","2","0","0","2","1","2","0","0",,5426252
"","","",1700,28,1466,206,"2020-07-02T00:00:00.000Z","2","0","0","2","1","0","1","2","2","2","0","0","2","1","2","0","0",,5426252
"","","",1720,28,1466,226,"2020-07-03T00:00:00.000Z","2","0","0","2","1","0","1","2","2","2","0","0","2","1","2","0","0",,5426252
"","","",1749,28,1466,255,"2020-07-04T00:00:00.000Z","2","0","0","2","1","0","1","2","2","2","0","0","2","1","2","0","0","null",5426252
"","","",1764,28,1466,270,"2020-07-05T00:00:00.000Z","2","0","0","2","1","0","1","2","2","2","0","0","2","1","2","0","0","null",5426252
"","","",1765,28,1466,271,"2020-07-06T00:00:00.000Z","2","0","0","2","1","0","1","2","2","2","0","0","2","1","2","0","0","null",5426252
"","","",1767,28,1473,266,"2020-07-07T00:00:00.000Z","2","0","0","2","1","0","1","2","2","2","0","0","2","1","2","0","0","null",5426252
"","","",1798,28,1473,297,"2020-07-08T00:00:00.000Z","2","0","0","2","1","0","1","2","2","2","0","0","2","1","2","0","0","null",5426252
"","","",1851,28,1477,346,"2020-07-09T00:00:00.000Z","2","0","0","2","1","0","1","2","2","2","0","0","2","2","2","0","0",,5426252
"","","",1870,28,1481,361,"2020-07-10T00:00:00.000Z","2","0","0","2","1","0","1","2","2","2","0","0","2","2","2","0","0",,5426252
"","","",1893,28,1493,372,"2020-07-11T00:00:00.000Z","2","0","0","2","1","0","1","2","2","2","0","0","2","2","2","0","0",,5426252
"","","",1901,28,1493,380,"2020-07-12T00:00:00.000Z","2","0","0","2","1","0","1","2","2","2","0","0","2","2","2","0","0",,5426252
"","","",1902,28,1493,381,"2020-07-13T00:00:00.000Z","2","0","0","2","1","0","1","2","2","2","0","0","2","2","2","0","0",,5426252
"","","",1908,28,1493,387,"2020-07-14T00:00:00.000Z","2","0","0","2","1","0","1","2","2","2","0","0","2","2","2","0","0",,5426252
"","","",1927,28,1507,392,"2020-07-15T00:00:00.000Z","2","0","0","2","1","0","1","2","2","2","0","0","2","2","2","0","0",,5426252
"","","",1951,28,1514,409,"2020-07-16T00:00:00.000Z","2","0","0","2","1","0","1","2","2","2","0","0","2","2","2","0","0",,5426252
"","","",1965,28,1523,414,"2020-07-17T00:00:00.000Z","2","0","0","2","1","0","1","2","2","2","0","0","2","2","2","0","0",,5426252
"","","",1976,28,1523,425,"2020-07-18T00:00:00.000Z","2","0","0","2","1","0","1","2","2","2","0","0","2","2","2","0","0",,5426252
"","","",1979,28,1530,421,"2020-07-19T00:00:00.000Z","2","0","0","2","1","0","1","2","2","2","0","0","2","2","2","0","0",,5426252
"","","",1980,28,1538,414,"2020-07-20T00:00:00.000Z","2","0","0","2","1","0","1","2","2","2","0","0","2","2","2","0","0",,5426252
"","","",2021,28,1538,455,"2020-07-21T00:00:00.000Z","2","0","0","2","1","0","1","2","2","2","0","0","2","2","2","0","0",,5426252
"","","",2058,28,1556,474,"2020-07-22T00:00:00.000Z","2","0","0","2","1","0","1","2","2","2","0","0","2","2","2","0","0",,5426252
"","","",2089,28,1556,505,"2020-07-23T00:00:00.000Z","2","0","0","2","1","0","1","2","2","2","0","0","2","2","2","0","0",,5426252
"","","",2118,28,1577,513,"2020-07-24T00:00:00.000Z","2","0","0","2","1","0","1","2","2","2","0","0","2","2","2","0","0",,5426252
"","","",2141,28,1577,536,"2020-07-25T00:00:00.000Z","2","0","0","2","1","0","1","2","2","2","0","0","2","2","2","0","0",,5426252
"","","",2179,28,1577,574,"2020-07-26T00:00:00.000Z","2","0","0","2","1","0","1","2","2","2","0","0","2","2","2","0","0",,5426252
"","","",2181,28,1616,537,"2020-07-27T00:00:00.000Z","2","0","0","2","0","0","1","2","2","2","0","0","2","2","2","0","0",,5426252
"","","",2204,28,1644,532,"2020-07-28T00:00:00.000Z","2","0","0","2","0","0","1","2","2","2","0","0","2","2","2","0","0",,5426252
"","","",2245,28,1660,557,"2020-07-29T00:00:00.000Z","2","0","0","2","0","0","1","2","2","2","0","0","2","2","2","0","0",,5426252
"","","",2265,28,1675,562,"2020-07-30T00:00:00.000Z","2","0","0","2","0","0","1","2","2","2","0","0","2","2","2","0","0",,5426252
"","","",2292,29,1695,568,"2020-07-31T00:00:00.000Z","2","0","0","2","0","0","1","2","2","2","0","0","2","2","2","0","0",,5426252
"","","",2337,29,1742,566,"2020-08-01T00:00:00.000Z","2","0","0","2","0","0","1","2","2","2","0","0","2","2","2","0","0",,5426252
"","","",2344,29,1742,573,"2020-08-02T00:00:00.000Z","2","0","0","2","0","0","1","2","2","2","0","0","2","2","2","0","0",,5426252
"","","",2354,29,1746,579,"2020-08-03T00:00:00.000Z","2","0","0","2","0","0","1","2","2","2","0","0","2","2","2","0","0",,5426252
"","","",2368,29,1771,568,"2020-08-04T00:00:00.000Z","2","0","0","2","0","0","1","2","2","2","0","0","2","2","2","0","0",,5426252
"","","",2417,29,1777,611,"2020-08-05T00:00:00.000Z","2","0","0","2","0","0","1","2","2","2","0","0","2","2","2","0","0",,5426252
"","","",2480,29,1824,627,"2020-08-06T00:00:00.000Z","2","0","0","2","0","0","1","2","2","2","0","0","2","2","2","0","0",,5426252
"","","",2523,31,1846,646,"2020-08-07T00:00:00.000Z","2","0","0","2","0","0","1","2","2","2","0","0","2","2","2","0","0",,5426252
"","","",2566,31,1861,674,"2020-08-08T00:00:00.000Z","2","0","0","2","0","0","1","2","2","2","0","0","2","2","2","0","0",,5426252
"","","",2596,31,1864,701,"2020-08-09T00:00:00.000Z","2","0","0","2","0","0","1","2","2","2","0","0","2","2","2","0","0",,5426252
"","","",2599,31,1866,702,"2020-08-10T00:00:00.000Z","2","0","0","2","0","0","1","2","2","2","0","0","2","2","2","0","0",,5426252
"","","",2615,31,1874,710,"2020-08-11T00:00:00.000Z","2","0","0","2","0","0","1","2","2","2","0","0","2","2","2","0","0",,5426252
"","","",2690,31,1884,775,"2020-08-12T00:00:00.000Z","2","0","0","2","0","0","1","2","2","2","4,737,000,000","0","2","2","2","0","0",,5426252
"","","",2739,31,1939,769,"2020-08-13T00:00:00.000Z","2","0","0","2","0","0","1","2","2","2","0","0","2","2","2","0","0",,5426252
"","","",2801,31,1944,826,"2020-08-14T00:00:00.000Z","2","0","0","2","0","0","1","2","2","2","0","0","2","2","2","0","0",,5426252
"","","",2855,31,1969,855,"2020-08-15T00:00:00.000Z","2","0","0","2","0","0","1","2","2","2","0","0","2","2","2","0","0",,5426252
"","","",2902,31,1969,902,"2020-08-16T00:00:00.000Z","2","0","0","2","0","0","0","3","2","2","0","0","2","2","2","0","0",,5426252
"","","",2907,31,1969,907,"2020-08-17T00:00:00.000Z","2","0","0","2","0","0","0","3","2","2","0","0","2","2","2","0","0",,5426252
"","","",2922,31,1980,911,"2020-08-18T00:00:00.000Z","2","0","0","2","0","0","0","3","2","2","0","0","2","2","2","0","0",,5426252
"","","",3022,33,1997,992,"2020-08-19T00:00:00.000Z","2","0","0","2","0","0","0","3","2","2","0","0","2","2","2","0","0",,5426252
"","","",3102,33,2014,1055,"2020-08-20T00:00:00.000Z","2","0","0","2","0","0","0","3","2","2","0","0","2","2","2","0","0",,5426252
"","","",3225,33,2045,1147,"2020-08-21T00:00:00.000Z","2","0","0","2","0","0","0","3","2","2","0","0","2","2","2","0","0",,5426252
"","","",3316,33,2147,1136,"2020-08-22T00:00:00.000Z","2","0","0","2","0","0","0","3","2","2","0","0","2","2","2","0","0",,5426252
"","","",3356,33,2148,1175,"2020-08-23T00:00:00.000Z","2","0","0","2","0","0","0","3","2","2","0","0","2","2","2","0","0",,5426252
"","","",3424,33,2153,1238,"2020-08-24T00:00:00.000Z","2","0","0","2","0","0","0","3","2","2","0","0","2","2","2","0","0",,5426252
"","","",3452,33,2167,1252,"2020-08-25T00:00:00.000Z","2","0","0","2","0","0","0","3","2","2","0","0","2","2","2","0","0",,5426252
"","","",3536,33,2192,1311,"2020-08-26T00:00:00.000Z","2","0","0","2","0","0","0","3","2","2","0","0","2","2","2","0","0",,5426252
"","","",3626,33,2206,1387,"2020-08-27T00:00:00.000Z","2","0","0","2","0","0","0","3","2","2","0","0","2","2","2","0","0",,5426252
"","","",3728,33,2225,1470,"2020-08-28T00:00:00.000Z","2","0","0","2","0","0","0","3","2","2","0","0","2","2","2","0","0",,5426252
"","","",3842,33,2254,1555,"2020-08-29T00:00:00.000Z","2","0","0","2","0","0","0","3","2","2","0","0","2","2","2","0","0",,5426252
"","","",3876,33,2278,1565,"2020-08-30T00:00:00.000Z","2","0","0","2","0","0","0","3","2","2","0","0","2","2","2","0","0",,5426252
"","","",3917,33,2377,1507,"2020-08-31T00:00:00.000Z","2","0","0","2","0","0","0","3","2","2","0","0","2","2","2","0","0",,5426252
"","","",3989,33,2478,1478,"2020-09-01T00:00:00.000Z","2","0","0","2","0","0","0","2","2","2","0","0","2","2","2","0","0",,5426252
"","","",4042,33,2523,1486,"2020-09-02T00:00:00.000Z","1","0","0","2","0","0","0","2","2","2","0","0","2","2","2","0","0",,5426252
"","","",4163,37,2617,1509,"2020-09-03T00:00:00.000Z","1","0","1","2","0","0","0","2","2","2","0","0","2","2","2","0","0",,5426252
"","","",4300,37,2693,1570,"2020-09-04T00:00:00.000Z","1","0","1","2","0","0","0","2","2","2","0","0","2","3","2","0","0",,5426252
"","","",4526,37,2797,1692,"2020-09-05T00:00:00.000Z","1","0","1","2","0","0","0","2","2","2","0","0","2","3","2","0","0",,5426252
"","","",4614,37,2802,1775,"2020-09-06T00:00:00.000Z","1","0","1","2","0","0","0","2","2","2","0","0","2","3","2","0","0",,5426252
"","","",4636,37,2836,1763,"2020-09-07T00:00:00.000Z","1","0","1","2","0","0","0","2","2","2","0","0","2","3","2","0","0",,5426252
"","","",4727,37,2913,1777,"2020-09-08T00:00:00.000Z","1","0","1","2","0","0","0","2","2","2","0","0","2","3","2","0","0",,5426252
"","","",4888,37,2947,1904,"2020-09-09T00:00:00.000Z","1","0","1","2","0","0","0","2","2","2","0","0","2","3","2","0","0",,5426252
"","","",5066,37,3001,2028,"2020-09-10T00:00:00.000Z","1","0","1","2","0","0","0","2","2","2","0","0","2","3","2","0","0",,5426252
"","","",5252,37,3081,2134,"2020-09-11T00:00:00.000Z","1","0","1","2","0","0","1","2","2","2","0","0","2","3","2","0","0",,5426252
"","","",5453,38,3114,2301,"2020-09-12T00:00:00.000Z","1","0","1","2","0","0","1","2","2","2","0","0","2","3","2","0","0",,5426252
"","","",5532,38,3124,2370,"2020-09-13T00:00:00.000Z","1","0","1","2","0","0","1","2","2","2","0","0","2","3","2","0","0",,5426252
"","","",5580,38,3129,2413,"2020-09-14T00:00:00.000Z","1","0","1","2","0","0","1","2","2","2","0","0","2","3","2","0","0",,5426252
"","","",5768,38,3214,2516,"2020-09-15T00:00:00.000Z","1","0","1","2","0","0","1","2","2","2","0","0","2","3","2","0","0",,5426252
"","","",5860,38,3220,2602,"2020-09-16T00:00:00.000Z","1","0","1","2","0","0","1","2","2","2","0","0","2","3","2","0","0",,5426252
"","","",6021,39,3288,2694,"2020-09-17T00:00:00.000Z","1","0","1","2","0","0","1","2","2","2","0","0","2","3","2","0","0",,5426252
"","","",6256,39,3390,2827,"2020-09-18T00:00:00.000Z","1","0","1","2","0","0","1","2","2","2","0","0","2","3","2","0","0",,5426252
"","","",6546,39,3519,2988,"2020-09-19T00:00:00.000Z","1","0","1","2","0","0","1","2","2","2","0","0","2","3","2","0","0",,5426252
"","","",6677,39,3548,3090,"2020-09-20T00:00:00.000Z","1","0","1","2","0","0","1","2","2","2","0","0","2","3","2","0","0",,5426252
"","","",6756,39,3571,3146,"2020-09-21T00:00:00.000Z","1","0","1","2","0","0","1","2","2","2","0","0","2","3","2","0","0",,5426252
"","","",6931,40,3668,3223,"2020-09-22T00:00:00.000Z","1","0","1","2","0","0","1","2","2","2","0","0","2","3","2","0","0",,5426252
"","","",7269,41,3888,3340,"2020-09-23T00:00:00.000Z","1","0","1","2","0","0","1","2","2","2","0","0","2","3","2","0","0",,5426252
"","","",7629,41,3978,3610,"2020-09-24T00:00:00.000Z","1","0","1","2","0","0","1","2","2","2","0","0","2","3","2","0","0",,5426252
"","","",8048,41,4036,3971,"2020-09-25T00:00:00.000Z","1","0","1","2","0","0","1","2","2","2","0","0","2","3","2","0","0",,5426252
"","","",8600,44,4098,4458,"2020-09-26T00:00:00.000Z","1","0","1","2","0","0","1","2","2","2","0","0","2","3","2","0","0",,5426252
"","","",9078,44,4178,4856,"2020-09-27T00:00:00.000Z","1","0","1","2","0","0","1","2","2","2","0","0","2","3","2","0","0",,5426252
"","","",9343,44,4213,5086,"2020-09-28T00:00:00.000Z","1","0","1","2","0","0","1","2","2","2","0","0","2","3","2","0","0",,5426252
"","","",9574,45,4329,5200,"2020-09-29T00:00:00.000Z","1","0","1","2","0","0","1","2","2","2","0","0","2","3","2","0","0",,5426252
"","","",10141,48,4395,5698,"2020-09-30T00:00:00.000Z","1","0","1","2","0","0","1","2","2","2","0","0","2","3","2","0","0",,5426252
"","","",10938,48,4620,6270,"2020-10-01T00:00:00.000Z","1","1","2","4","0","0","1","2","2","2","0","0","2","3","2","0","0",,5426252
"","","",11617,54,4756,6807,"2020-10-02T00:00:00.000Z","1","1","2","4","0","0","1","2","2","2","0","0","2","3","2","0","0",,5426252
"","","",12321,54,4793,7474,"2020-10-03T00:00:00.000Z","1","1","2","4","0","0","1","2","2","2","0","0","2","3","2","0","0",,5426252
"","","",13139,55,4828,8256,"2020-10-04T00:00:00.000Z","1","1","2","4","0","0","1","2","2","2","0","0","2","3","2","0","0",,5426252
"","","",13492,55,4865,8572,"2020-10-05T00:00:00.000Z","1","1","2","3","0","0","0","2","2","2","0","0","2","3","2","0","0",,5426252
"","","",13812,55,5027,8730,"2020-10-06T00:00:00.000Z","1","1","2","3","0","0","0","2","2","2","0","0","2","3","2","0","0",,5426252
"","","",14689,55,5200,9434,"2020-10-07T00:00:00.000Z","1","1","2","3","0","0","0","2","2","2","0","0","2","3","2","0","0",,5426252
"","","",15726,57,5353,10316,"2020-10-08T00:00:00.000Z","1","1","2","3","0","0","0","2","2","2","0","0","2","3","2","0","0",,5426252
"","","",16910,57,5452,11401,"2020-10-09T00:00:00.000Z","1","1","2","3","0","0","0","2","2","2","0","0","2","3","2","0","0",,5426252
"","","",18797,61,5553,13183,"2020-10-10T00:00:00.000Z","1","1","2","3","0","0","0","2","2","2","0","0","2","3","2","0","0",,5426252
"","","",19851,61,5631,14159,"2020-10-11T00:00:00.000Z","1","1","2","3","0","0","0","2","2","2","0","0","2","3","2","0","0",,5426252
"","","",20355,61,6031,14263,"2020-10-12T00:00:00.000Z","2","1","2","3","0","0","0","2","2","2","0","0","2","3","2","0","0",,5426252
"","","",20886,61,6388,14437,"2020-10-13T00:00:00.000Z","2","1","2","4","0","0","0","2","2","2","0","0","2","3","2","0","0",,5426252
"","","",22296,66,6709,15521,"2020-10-14T00:00:00.000Z","2","1","2","4","0","0","0","2","2","2","0","0","2","3","2","0","0",,5426252
"","","",24225,71,6926,17228,"2020-10-15T00:00:00.000Z","2","2","2","4","0","0","0","2","2","2","0","0","2","3","2","0","0",,5426252
"","","",26300,71,7182,19047,"2020-10-16T00:00:00.000Z","2","2","2","4","0","0","0","2","2","2","0","0","2","3","2","0","0",,5426252
"","","",28268,82,7297,20889,"2020-10-17T00:00:00.000Z","2","2","2","4","0","0","0","2","2","2","0","0","2","3","2","0","0",,5426252
"","","",29835,88,7359,22388,"2020-10-18T00:00:00.000Z","2","2","2","4","0","0","0","2","2","2","0","0","2","3","2","0","0",,5426252
"","","",30695,92,7536,23067,"2020-10-19T00:00:00.000Z","2","2","2","4","0","0","0","2","2","2","0","0","2","3","2","0","0",,5426252
"","","",31400,98,8004,23298,"2020-10-20T00:00:00.000Z","2","2","2","4","0","0","0","2","2","2","0","0","2","3","2","0","0",,5426252
"","","",33602,98,8404,25100,"2020-10-21T00:00:00.000Z","2","2","2","4","0","0","0","2","2","2","0","0","2","3","2","0","0",,5426252
"","","",35330,115,8763,26452,"2020-10-22T00:00:00.000Z","2","3","2","4","0","2","2","2","2","2","0","0","2","3","2","0","0",,5426252
"","","",37911,134,8859,28918,"2020-10-23T00:00:00.000Z","2","3","2","4","0","2","2","2","2","2","0","0","2","3","2","0","0",,5426252
"","","",40801,159,9920,30722,"2020-10-24T00:00:00.000Z","2","3","2","4","0","2","2","2","2","2","0","0","2","3","2","0","0",,5426252
"","","",43843,159,9960,33724,"2020-10-25T00:00:00.000Z","2","3","2","4","0","2","2","2","2","2","0","0","2","3","2","0","0",,5426252
"","","",45155,165,10130,34860,"2020-10-26T00:00:00.000Z","2","3","2","4","0","2","2","2","2","2","0","0","2","3","2","0","0",,5426252
"","","",46056,176,11008,34872,"2020-10-27T00:00:00.000Z","2","3","2","4","0","2","2","2","2","2","0","0","2","3","2","0","0",,5426252
"","","",48943,184,11799,36960,"2020-10-28T00:00:00.000Z","2","3","2","4","0","2","2","2","2","2","0","0","2","3","2","0","0",,5426252
"","","",51728,200,12227,39301,"2020-10-29T00:00:00.000Z","2","3","2","4","0","2","2","2","2","2","0","0","2","3","2","0","0",,5426252
"","","",55091,212,12508,42371,"2020-10-30T00:00:00.000Z","2","3","2","4","0","2","2","2","2","2","0","0","2","3","2","0","0",,5426252
"","","",57664,219,12617,44828,"2020-10-31T00:00:00.000Z","2","3","2","4","0","2","2","2","2","2","0","0","2","3","2","0","0",,5426252
"","","",59946,219,12798,46929,"2020-11-01T00:00:00.000Z","2","3","2","4","0","2","2","2","2","2","0","0","2","3","2","0","0",,5426252
"","","",61829,219,13012,48598,"2020-11-02T00:00:00.000Z","2","3","2","4","0","2","2","2","2","2","0","0","2","3","2","0","0",,5426252
"","","",63556,235,14257,49064,"2020-11-03T00:00:00.000Z","2","3","2","4","0","2","2","2","2","2","0","0","2","3","2","0","0",,5426252
"","","",66772,261,15474,51037,"2020-11-04T00:00:00.000Z","2","3","2","4","0","2","2","2","2","2","0","0","2","3","2","0","0",,5426252
"","","",68734,286,16426,52022,"2020-11-05T00:00:00.000Z","2","3","2","4","0","2","2","2","2","2","0","0","2","3","2","0","0",,5426252
"","","",71088,317,16990,53781,"2020-11-06T00:00:00.000Z","2","3","2","4","0","2","2","2","2","2","0","0","2","3","2","0","0",,5426252
"","","",73667,351,18354,54962,"2020-11-07T00:00:00.000Z","2","3","2","4","0","2","2","2","2","2","0","0","2","3","2","0","0",,5426252
"","","",75495,351,19481,55663,"2020-11-08T00:00:00.000Z","2","3","2","4","0","2","2","2","2","2","0","0","2","3","2","0","0",,5426252
"","","",76072,366,19757,55949,"2020-11-09T00:00:00.000Z","2","3","2","4","0","2","2","2","2","2","0","0","2","3","2","0","0",,5426252
"","","",77123,390,21718,55015,"2020-11-10T00:00:00.000Z","2","3","2","4","0","2","2","2","2","2","0","0","2","3","2","0","0",,5426252
"","","",79181,414,23247,55520,"2020-11-11T00:00:00.000Z","2","3","2","4","0","2","2","2","2","2","0","0","2","3","2","0","0",,5426252
"","","",81772,464,24314,56994,"2020-11-12T00:00:00.000Z","2","3","2","4","0","2","2","2","2","2","0","0","2","3","2","0","0",,5426252
"","","",83796,491,26439,56866,"2020-11-13T00:00:00.000Z","2","3","2","4","0","2","2","2","2","2","0","0","2","3","2","0","0",,5426252
"","","",85567,510,29024,56033,"2020-11-14T00:00:00.000Z","2","3","2","4","0","2","2","2","2","2","0","0","2","3","2","0","0",,5426252
"","","",86767,510,30519,55738,"2020-11-15T00:00:00.000Z","2","3","2","4","0","2","2","2","2","2","0","0","2","3","2","0","0",,5426252
"","","",87276,526,31053,55697,"2020-11-16T00:00:00.000Z","2","2","2","4","0","2","2","2","2","2","0","0","2","3","2","0","0",,5426252
"","","",88602,557,33906,54139,"2020-11-17T00:00:00.000Z","2","2","2","4","0","2","2","2","2","2","0","0","2","3","2","0","0",,5426252
"","","",89913,579,35924,53410,"2020-11-18T00:00:00.000Z","2","2","2","4","0","2","2","2","2","2","0","0","2","3","2","0","0",,5426252
"","","",91578,579,38695,52304,"2020-11-19T00:00:00.000Z","2","2","2","4","0","2","2","2","2","2","0","0","2","3","2","0","0",,5426252
"","","",93396,614,40816,51966,"2020-11-20T00:00:00.000Z","2","2","2","4","0","2","2","2","2","2","0","0","2","3","2","0","0",,5426252
"","","",95257,644,43188,51425,"2020-11-21T00:00:00.000Z","2","2","2","4","0","2","2","2","2","2","0","0","2","3","2","0","0",,5426252
"","","",96241,671,45883,49687,"2020-11-22T00:00:00.000Z","2","2","2","4","0","2","2","2","2","2","0","0","2","3","2","0","0",,5426252
"","","",96472,693,47933,47846,"2020-11-23T00:00:00.000Z","2","2","2","4","0","2","2","2","2","2","0","0","2","3","2","0","0",,5426252
"","","",97493,709,50738,46046,"2020-11-24T00:00:00.000Z","2","2","2","4","0","2","2","2","2","2","0","0","2","3","2","0","0",,5426252
"","","",99304,732,53547,45025,"2020-11-25T00:00:00.000Z","2","2","2","4","0","2","2","2","2","2","0","0","2","3","2","0","0",,5426252
"","","",101257,749,56378,44130,"2020-11-26T00:00:00.000Z","2","2","2","4","0","2","2","2","2","2","0","0","2","3","2","0","0",,5426252
"","","",103106,771,59285,43050,"2020-11-27T00:00:00.000Z","2","2","2","0","0","2","2","2","2","2","0","0","2","3","2","0","0",,5426252
"","","",104632,798,62094,41740,"2020-11-28T00:00:00.000Z","2","2","2","0","0","2","2","2","2","2","0","0","2","3","2","0","0",,5426252
"","","",105733,816,64197,40720,"2020-11-29T00:00:00.000Z","2","2","2","0","0","2","2","2","2","2","0","0","2","3","2","0","0",,5426252
"","","",105929,839,66041,39049,"2020-11-30T00:00:00.000Z","2","2","2","0","0","2","2","2","2","2","0","0","2","3","2","0","0",,5426252
"","","",107183,868,68859,37456,"2020-12-01T00:00:00.000Z","2","2","2","0","0","2","2","2","2","2","0","0","2","3","2","0","0",,5426252
"","","",109226,898,71738,36590,"2020-12-02T00:00:00.000Z","2","2","2","0","0","2","2","2","2","2","0","0","2","3","2","0","0",,5426252
"","","",111208,930,74273,36005,"2020-12-03T00:00:00.000Z","2","2","2","0","0","2","2","2","2","2","0","0","2","3","2","0","0",,5426252
"","","",113392,957,77142,35293,"2020-12-04T00:00:00.000Z","2","2","2","0","0","2","2","2","2","2","0","0","2","3","2","0","0",,5426252
"","","",115462,981,79956,34525,"2020-12-05T00:00:00.000Z","2","2","2","0","0","2","2","2","2","2","0","0","2","3","2","0","0",,5426252
"","","",116731,996,82666,33069,"2020-12-06T00:00:00.000Z","2","2","2","0","0","2","2","2","2","2","0","0","2","3","2","0","0",,5426252
"","","",117283,1018,84850,31415,"2020-12-07T00:00:00.000Z","1","2","2","0","0","2","2","2","2","2","0","0","2","3","2","0","0",,5426252
"","","",119232,1046,87433,30753,"2020-12-08T00:00:00.000Z","1","2","2","0","0","2","2","2","2","2","0","0","2","3","2","0","0",,5426252
"","","",121796,1084,89769,30943,"2020-12-09T00:00:00.000Z","1","2","2","0","0","2","2","2","2","2","0","0","2","3","2","0","0",,5426252
"","","",124921,1104,91455,32362,"2020-12-10T00:00:00.000Z","1","2","2","0","0","2","2","2","2","2","0","0","2","3","2","0","0",,5426252
"","","",127087,1122,93533,32432,"2020-12-11T00:00:00.000Z","1","2","2","0","0","2","0","2","2","2","0","0","2","3","2","0","0",,5426252
"","","",130794,1148,95416,34230,"2020-12-12T00:00:00.000Z","1","2","2","0","0","2","0","2","2","2","0","0","2","3","2","0","0",,5426252
"","","",132984,1175,97068,34741,"2020-12-13T00:00:00.000Z","1","2","2","0","0","2","0","2","2","2","0","0","2","3","2","0","0",,5426252
"","","",133489,1205,98585,33699,"2020-12-14T00:00:00.000Z","1","2","2","0","0","2","0","2","2","2","0","0","2","3","2","0","0",,5426252
"","","",135523,1251,100303,33969,"2020-12-15T00:00:00.000Z","1","2","2","0","0","2","0","2","2","2","0","0","2","3","2","0","0",,5426252
"","","",139088,1309,101584,36195,"2020-12-16T00:00:00.000Z","1","2","2","0","0","2","0","2","2","2","0","0","2","3","2","0","0",,5426252
"","","",142133,1378,102737,38018,"2020-12-17T00:00:00.000Z","1","2","2","0","0","2","0","2","2","2","0","0","2","3","2","0","0",,5426252
"","","",146124,1440,104560,40124,"2020-12-18T00:00:00.000Z","1","2","2","0","0","2","0","2","2","2","0","0","2","3","2","0","0",,5426252
"","","",149275,1510,106361,41404,"2020-12-19T00:00:00.000Z","1","2","2","0","0","2","0","2","2","2","0","0","2","3","2","0","0",,5426252
"","","",151336,1555,107828,41953,"2020-12-20T00:00:00.000Z","1","2","2","0","0","2","0","2","2","2","0","0","2","3","2","0","0",,5426252
"","","",152555,1618,109807,41130,"2020-12-21T00:00:00.000Z","1","2","2","0","0","2","0","2","2","2","0","0","2","3","2","0","0",,5426252
"","","",155218,1618,110565,43035,"2020-12-22T00:00:00.000Z","1","2","2","0","0","2","0","2","2","2","0","0","2","3","2","0","0",,5426252
"","","",158905,1686,112627,44592,"2020-12-23T00:00:00.000Z","1","2","2","0","0","2","0","2","2","2","0","0","2","3","2","0","0",,5426252
"","","",161562,1732,114267,45563,"2020-12-24T00:00:00.000Z","1","2","2","0","0","2","0","2","2","2","0","0","2","3","2","0","0",,5426252
"","","",165608,1732,115663,48213,"2020-12-25T00:00:00.000Z","1","2","2","0","0","2","0","2","2","2","0","0","2","3","2","0","0",,5426252
"","","",166649,1732,116948,47969,"2020-12-26T00:00:00.000Z","1","2","2","0","0","2","0","2","2","2","0","0","2","3","2","0","0",,5426252
"","","",167523,1773,119086,46664,"2020-12-27T00:00:00.000Z","1","2","2","0","0","2","0","2","2","2","0","0","2","3","2","0","0",,5426252
"","","",168092,1879,120410,45803,"2020-12-28T00:00:00.000Z","1","2","2","0","0","2","0","2","2","2","0","0","2","3","2","0","0",,5426252
"","","",170187,1983,121760,46444,"2020-12-29T00:00:00.000Z","1","2","2","0","0","2","0","2","2","2","0","0","2","3","2","0","0",,5426252
"","","",173228,2065,124427,46736,"2020-12-30T00:00:00.000Z","1","2","2","0","0","2","0","2","2","2","0","0","2","3","2","0","0",,5426252
"","","",179543,2138,125971,51434,"2020-12-31T00:00:00.000Z","1","2","2","0","0","2","0","2","2","2","0","0","2","3","2","0","0",,5426252
"","","",184508,2250,127190,55068,"2021-01-01T00:00:00.000Z","1","2","2","0","0","2","0","2","2","2","0","0","2","3","2","0","0",,5426252
"","","",186244,2250,128285,55709,"2021-01-02T00:00:00.000Z","1","2","2","0","0","2","0","2","2","2","0","0","2","3","2","0","0",,5426252
"","","",187463,2317,129994,55152,"2021-01-03T00:00:00.000Z","1","2","2","0","0","2","0","2","2","2","0","0","2","3","2","0","0",,5426252
"","","",188099,2521,130897,54681,"2021-01-04T00:00:00.000Z","1","2","2","0","0","2","0","2","2","2","0","0","2","3","2","0","0",,5426252
"","","",191088,2603,132852,55633,"2021-01-05T00:00:00.000Z","1","2","2","0","0","2","0","2","2","2","0","0","2","3","2","0","0",,5426252
"","","",196047,2657,135760,57630,"2021-01-06T00:00:00.000Z","1","2","2","0","0","2","0","2","2","2","0","0","2","3","2","0","0",,5426252
"","","",198184,2717,138383,57084,"2021-01-07T00:00:00.000Z","1","2","2","0","0","2","2","2","2","2","0","0","2","3","2","0","0",,5426252
"","","",201164,2788,141490,56886,"2021-01-08T00:00:00.000Z","1","2","2","0","0","2","2","2","2","2","0","0","2","3","2","0","0",,5426252
"","","",205236,2836,144612,57788,"2021-01-09T00:00:00.000Z","1","2","2","0","0","2","2","2","2","2","0","0","2","3","2","0","0",,5426252
"","","",208209,2918,147275,58016,"2021-01-10T00:00:00.000Z","1","2","2","0","0","2","2","2","2","2","0","0","2","3","2","0","0",,5426252
"","","",209069,3007,150239,55823,"2021-01-11T00:00:00.000Z","2","2","2","0","0","2","2","2","2","2","0","0","2","3","2","0","0",,5426252
"","","",211479,3102,153755,54622,"2021-01-12T00:00:00.000Z","2","2","2","0","0","2","2","2","2","2","0","0","2","3","2","0","0",,5426252
"","","",215055,3163,157028,54864,"2021-01-13T00:00:00.000Z","2","2","2","0","0","2","2","2","2","2","0","0","2","3","2","0","0",,5426252
"","","",217978,3260,160401,54317,"2021-01-14T00:00:00.000Z","2","2","2","0","0","2","2","2","2","2","0","0","2","3","2","0","0",,5426252
"","","",220707,3362,163323,54022,"2021-01-15T00:00:00.000Z","2","2","2","0","0","2","2","2","2","2","0","0","2","3","2","0","0",,5426252
"","","",222752,3417,166555,52780,"2021-01-16T00:00:00.000Z","2","2","2","0","0","2","2","2","2","2","0","0","2","3","2","0","0",,5426252
"","","",223325,3474,168915,50936,"2021-01-17T00:00:00.000Z","2","2","2","0","0","2","2","2","2","2","0","0","2","3","2","0","0",,5426252
"","","",224385,3526,171092,49767,"2021-01-18T00:00:00.000Z","2","2","2","0","0","2","2","2","2","2","0","0","2","3","2","0","0",,5426252
"","","",226294,3637,173761,48896,"2021-01-19T00:00:00.000Z","3","0","0","0","0","0","0","0","0","0","0","0","0","0","0","0","0",,5426252
"","","",228778,3737,176864,48177,"2021-01-20T00:00:00.000Z","3","0","0","0","0","0","0","0","0","0","0","0","0","0","0","0","0",,5426252
"","","",231242,3801,181129,46312,"2021-01-21T00:00:00.000Z","3","2","2","4","0","2","2","2","2","2","0","0","2","3","2","0","0",,5426252
"","","",233027,3894,183942,45191,"2021-01-22T00:00:00.000Z","3","2","2","4","0","2","2","2","2","2","0","0","2","3","2","0","0",,5426252
"","","",234571,3965,186683,43923,"2021-01-23T00:00:00.000Z","3","2","2","4","0","2","2","2","2","2","0","0","2","3","2","0","0",,5426252