<mxfile host="65bd71144e" modified="2021-01-23T10:31:03.329Z" agent="5.0 (Windows NT 10.0; Win64; x64) AppleWebKit/537.36 (KHTML, like Gecko) Code/1.52.1 Chrome/83.0.4103.122 Electron/9.3.5 Safari/537.36" etag="IB3GQU5Lr6zpFB1ZBYLH" version="13.10.0" type="embed">
    <diagram id="Qk6Kl_fOYS9K60tdv7QJ" name="Page-1">
        <mxGraphModel dx="518" dy="1737" grid="1" gridSize="10" guides="1" tooltips="1" connect="1" arrows="1" fold="1" page="1" pageScale="1" pageWidth="827" pageHeight="1169" math="0" shadow="0">
            <root>
                <mxCell id="0"/>
                <mxCell id="1" parent="0"/>
                <mxCell id="Ksx2En3v4nuvhkFv5xAf-5" value="Frontend" style="shape=umlFrame;whiteSpace=wrap;html=1;" parent="1" vertex="1">
                    <mxGeometry x="290" y="260" width="250" height="110" as="geometry"/>
                </mxCell>
                <mxCell id="Ksx2En3v4nuvhkFv5xAf-1" value="User" style="shape=umlActor;verticalLabelPosition=bottom;verticalAlign=top;html=1;" parent="1" vertex="1">
                    <mxGeometry x="510" y="430" width="30" height="60" as="geometry"/>
                </mxCell>
                <mxCell id="Ksx2En3v4nuvhkFv5xAf-2" value="System" style="shape=umlFrame;whiteSpace=wrap;html=1;" parent="1" vertex="1">
                    <mxGeometry x="140" y="-170" width="800" height="570" as="geometry"/>
                </mxCell>
                <mxCell id="Ksx2En3v4nuvhkFv5xAf-3" value="User interface" style="shape=module;align=left;spacingLeft=20;align=center;verticalAlign=top;" parent="1" vertex="1">
                    <mxGeometry x="334" y="300" width="160" height="50" as="geometry"/>
                </mxCell>
                <mxCell id="Ksx2En3v4nuvhkFv5xAf-4" value="" style="endArrow=open;endFill=1;endSize=12;html=1;exitX=0;exitY=0.3333333333333333;exitDx=0;exitDy=0;exitPerimeter=0;" parent="1" source="Ksx2En3v4nuvhkFv5xAf-1" target="Ksx2En3v4nuvhkFv5xAf-3" edge="1">
                    <mxGeometry width="160" relative="1" as="geometry">
                        <mxPoint x="310" y="470" as="sourcePoint"/>
                        <mxPoint x="470" y="470" as="targetPoint"/>
                    </mxGeometry>
                </mxCell>
                <mxCell id="Ksx2En3v4nuvhkFv5xAf-6" value="API" style="shape=umlFrame;whiteSpace=wrap;html=1;" parent="1" vertex="1">
                    <mxGeometry x="194" y="50" width="220" height="200" as="geometry"/>
                </mxCell>
                <mxCell id="Ksx2En3v4nuvhkFv5xAf-7" value="PBL API" style="shape=module;align=left;spacingLeft=20;align=center;verticalAlign=top;" parent="1" vertex="1">
                    <mxGeometry x="300" y="180" width="100" height="50" as="geometry"/>
                </mxCell>
                <mxCell id="Ksx2En3v4nuvhkFv5xAf-8" value="SIR Model" style="shape=module;align=left;spacingLeft=20;align=center;verticalAlign=top;" parent="1" vertex="1">
                    <mxGeometry x="200" y="100" width="100" height="50" as="geometry"/>
                </mxCell>
                <mxCell id="Ksx2En3v4nuvhkFv5xAf-9" value="" style="endArrow=open;endFill=1;endSize=12;html=1;exitX=0.5;exitY=0;exitDx=0;exitDy=0;" parent="1" source="Ksx2En3v4nuvhkFv5xAf-3" target="Ksx2En3v4nuvhkFv5xAf-7" edge="1">
                    <mxGeometry width="160" relative="1" as="geometry">
                        <mxPoint x="660" y="290" as="sourcePoint"/>
                        <mxPoint x="920" y="230" as="targetPoint"/>
                    </mxGeometry>
                </mxCell>
                <mxCell id="Ksx2En3v4nuvhkFv5xAf-10" value="" style="endArrow=open;endFill=1;endSize=12;html=1;exitX=0.25;exitY=0;exitDx=0;exitDy=0;" parent="1" source="Ksx2En3v4nuvhkFv5xAf-7" target="Ksx2En3v4nuvhkFv5xAf-8" edge="1">
                    <mxGeometry width="160" relative="1" as="geometry">
                        <mxPoint x="220" y="310" as="sourcePoint"/>
                        <mxPoint x="380" y="310" as="targetPoint"/>
                    </mxGeometry>
                </mxCell>
                <mxCell id="Ksx2En3v4nuvhkFv5xAf-11" value="Python" style="shape=umlFrame;whiteSpace=wrap;html=1;" parent="1" vertex="1">
                    <mxGeometry x="470" y="50" width="300" height="200" as="geometry"/>
                </mxCell>
                <mxCell id="Ksx2En3v4nuvhkFv5xAf-12" value="Arima, Arimax, Var" style="shape=folder;fontStyle=1;spacingTop=10;tabWidth=40;tabHeight=14;tabPosition=left;html=1;" parent="1" vertex="1">
                    <mxGeometry x="540" y="70" width="196" height="50" as="geometry"/>
                </mxCell>
                <mxCell id="Ksx2En3v4nuvhkFv5xAf-13" value="Flask API" style="shape=module;align=left;spacingLeft=20;align=center;verticalAlign=top;" parent="1" vertex="1">
                    <mxGeometry x="510" y="170" width="100" height="50" as="geometry"/>
                </mxCell>
                <mxCell id="Ksx2En3v4nuvhkFv5xAf-14" value="" style="endArrow=open;endFill=1;endSize=12;html=1;" parent="1" source="Ksx2En3v4nuvhkFv5xAf-7" target="Ksx2En3v4nuvhkFv5xAf-13" edge="1">
                    <mxGeometry width="160" relative="1" as="geometry">
                        <mxPoint x="590" y="120" as="sourcePoint"/>
                        <mxPoint x="750" y="120" as="targetPoint"/>
                    </mxGeometry>
                </mxCell>
                <mxCell id="Ksx2En3v4nuvhkFv5xAf-15" value="" style="endArrow=open;endFill=1;endSize=12;html=1;" parent="1" source="Ksx2En3v4nuvhkFv5xAf-13" target="Ksx2En3v4nuvhkFv5xAf-12" edge="1">
                    <mxGeometry width="160" relative="1" as="geometry">
                        <mxPoint x="610" y="110" as="sourcePoint"/>
                        <mxPoint x="770" y="110" as="targetPoint"/>
                    </mxGeometry>
                </mxCell>
                <mxCell id="Ksx2En3v4nuvhkFv5xAf-16" value="&lt;font style=&quot;font-size: 10px&quot;&gt;DataFetcher&lt;/font&gt;" style="shape=umlFrame;whiteSpace=wrap;html=1;" parent="1" vertex="1">
                    <mxGeometry x="300" y="-120" width="310" height="130" as="geometry"/>
                </mxCell>
                <mxCell id="Ksx2En3v4nuvhkFv5xAf-17" value="DataFetcher" style="shape=module;align=left;spacingLeft=20;align=center;verticalAlign=top;" parent="1" vertex="1">
                    <mxGeometry x="334" y="-70" width="100" height="50" as="geometry"/>
                </mxCell>
                <mxCell id="Ksx2En3v4nuvhkFv5xAf-18" value="" style="endArrow=open;endFill=1;endSize=12;html=1;" parent="1" source="Ksx2En3v4nuvhkFv5xAf-7" target="Ksx2En3v4nuvhkFv5xAf-17" edge="1">
                    <mxGeometry width="160" relative="1" as="geometry">
                        <mxPoint x="180" y="320" as="sourcePoint"/>
                        <mxPoint x="340" y="320" as="targetPoint"/>
                    </mxGeometry>
                </mxCell>
                <mxCell id="Ksx2En3v4nuvhkFv5xAf-20" value="The Johns Hopkins University's virus tracking&#10;https://coronavirus.jhu.edu/" style="shape=module;align=left;spacingLeft=20;align=center;verticalAlign=top;" parent="1" vertex="1">
                    <mxGeometry x="234" y="-280" width="296" height="50" as="geometry"/>
                </mxCell>
                <mxCell id="Ksx2En3v4nuvhkFv5xAf-21" value="" style="endArrow=open;endFill=1;endSize=12;html=1;" parent="1" source="Ksx2En3v4nuvhkFv5xAf-17" target="Ksx2En3v4nuvhkFv5xAf-20" edge="1">
                    <mxGeometry width="160" relative="1" as="geometry">
                        <mxPoint x="500" y="-210" as="sourcePoint"/>
                        <mxPoint x="660" y="-210" as="targetPoint"/>
                    </mxGeometry>
                </mxCell>
                <mxCell id="Ksx2En3v4nuvhkFv5xAf-22" value="MSSQL DATABASE" style="shape=datastore;whiteSpace=wrap;html=1;" parent="1" vertex="1">
                    <mxGeometry x="510" y="-80" width="70" height="70" as="geometry"/>
                </mxCell>
                <mxCell id="Ksx2En3v4nuvhkFv5xAf-23" value="" style="endArrow=open;endFill=1;endSize=12;html=1;" parent="1" source="Ksx2En3v4nuvhkFv5xAf-17" target="Ksx2En3v4nuvhkFv5xAf-22" edge="1">
                    <mxGeometry width="160" relative="1" as="geometry">
                        <mxPoint x="590" y="-170" as="sourcePoint"/>
                        <mxPoint x="750" y="-170" as="targetPoint"/>
                    </mxGeometry>
                </mxCell>
                <mxCell id="Ksx2En3v4nuvhkFv5xAf-24" value="Oxford COVID-19 Government Response Tracker&#10;https://covidtracker.bsg.ox.ac.uk/" style="shape=module;align=left;spacingLeft=20;align=center;verticalAlign=top;" parent="1" vertex="1">
                    <mxGeometry x="540" y="-280" width="310" height="50" as="geometry"/>
                </mxCell>
                <mxCell id="Ksx2En3v4nuvhkFv5xAf-26" value="" style="endArrow=open;endFill=1;endSize=12;html=1;" parent="1" source="Ksx2En3v4nuvhkFv5xAf-17" target="Ksx2En3v4nuvhkFv5xAf-24" edge="1">
                    <mxGeometry width="160" relative="1" as="geometry">
                        <mxPoint x="470" y="-130" as="sourcePoint"/>
                        <mxPoint x="630" y="-130" as="targetPoint"/>
                    </mxGeometry>
                </mxCell>
                <mxCell id="4" value="User interface" style="shape=module;align=left;spacingLeft=20;align=center;verticalAlign=top;" parent="1" vertex="1">
                    <mxGeometry x="600" y="300" width="160" height="50" as="geometry"/>
                </mxCell>
                <mxCell id="7" value="" style="endArrow=classic;html=1;" parent="1" source="4" target="Ksx2En3v4nuvhkFv5xAf-17" edge="1">
                    <mxGeometry width="50" height="50" relative="1" as="geometry">
                        <mxPoint x="640" y="-60" as="sourcePoint"/>
                        <mxPoint x="690" y="-110" as="targetPoint"/>
                        <Array as="points">
                            <mxPoint x="910" y="325"/>
                            <mxPoint x="910" y="-110"/>
                            <mxPoint x="750" y="-110"/>
                            <mxPoint x="640" y="-110"/>
                            <mxPoint x="530" y="-110"/>
                        </Array>
                    </mxGeometry>
                </mxCell>
                <mxCell id="9" value="" style="endArrow=open;endFill=1;endSize=12;html=1;" parent="1" target="4" edge="1">
                    <mxGeometry width="160" relative="1" as="geometry">
                        <mxPoint x="540" y="450" as="sourcePoint"/>
                        <mxPoint x="559.9985714285713" y="370" as="targetPoint"/>
                    </mxGeometry>
                </mxCell>
                <mxCell id="10" value="&lt;p style=&quot;line-height: 90%&quot;&gt;&lt;font style=&quot;font-size: 10px&quot;&gt;DataFetcher Frontend&lt;/font&gt;&lt;/p&gt;" style="shape=umlFrame;whiteSpace=wrap;html=1;" vertex="1" parent="1">
                    <mxGeometry x="560" y="260" width="240" height="110" as="geometry"/>
                </mxCell>
                <mxCell id="11" value="User interface" style="shape=module;align=left;spacingLeft=20;align=center;verticalAlign=top;" vertex="1" parent="1">
                    <mxGeometry x="600" y="300" width="160" height="50" as="geometry"/>
                </mxCell>
            </root>
        </mxGraphModel>
    </diagram>
</mxfile>